[gd_scene load_steps=2 format=2]

[ext_resource path="res://addons/de.mewin.gpm_ui/scripts/dialog_confirm_package_list.gd" type="Script" id=1]

[node name="dialog_confirm_package_list" type="ConfirmationDialog"]
anchor_right = 1.0
anchor_bottom = 1.0
popup_exclusive = true
resizable = true
dialog_text = "The following packages are about to be installed. Continue?"
script = ExtResource( 1 )
__meta__ = {
"_edit_use_anchors_": false
}

[node name="scroll_container" type="ScrollContainer" parent="."]
anchor_right = 1.0
anchor_bottom = 1.0
margin_left = 8.0
margin_top = 22.0
margin_right = -8.0
margin_bottom = -36.0
__meta__ = {
"_edit_use_anchors_": false
}

[node name="package_list" type="VBoxContainer" parent="scroll_container"]
margin_right = 1008.0
size_flags_horizontal = 3
