[gd_scene load_steps=2 format=2]

[ext_resource path="res://addons/de.mewin.gpm_ui/scenes/components/repository_list.tscn" type="PackedScene" id=1]

[node name="tab_settings" type="VBoxContainer"]
anchor_right = 1.0
anchor_bottom = 1.0
__meta__ = {
"_edit_use_anchors_": false
}

[node name="scroll_container" type="ScrollContainer" parent="."]
margin_right = 1024.0
margin_bottom = 600.0
size_flags_vertical = 3
scroll_horizontal_enabled = false
__meta__ = {
"_edit_use_anchors_": false
}

[node name="v_box_container" type="VBoxContainer" parent="scroll_container"]
margin_right = 1024.0
margin_bottom = 226.0
size_flags_horizontal = 3

[node name="repository_list" parent="scroll_container/v_box_container" instance=ExtResource( 1 )]
margin_bottom = 226.0
